<?xml version="1.0" standalone="no"?>
<!DOCTYPE svg PUBLIC "-//W3C//DTD SVG 1.1//EN" "http://www.w3.org/Graphics/SVG/1.1/DTD/svg11.dtd" >
<svg xmlns="http://www.w3.org/2000/svg">
<metadata>Generated by IcoMoon</metadata>
<defs>
<font id="icomoon" horiz-adv-x="1024">
<font-face units-per-em="1024" ascent="960" descent="-64" />
<missing-glyph horiz-adv-x="1024" />
<glyph unicode="&#x20;" horiz-adv-x="512" d="" />
<glyph unicode="&#xe600;" glyph-name="whatsapp" d="M520.256 917.547c-245.291 0-444.608-199.317-444.608-444.608 0-80.768 21.845-160.363 63.701-229.355l-80.213-238.805 245.909 78.997c66.027-36.587 140.331-55.445 215.211-55.445 245.291 0 444.608 199.317 444.608 444.608s-199.317 444.608-444.608 444.608zM752.405 318.080c-13.589-33.003-68.437-54.251-102.037-54.251-28.288 0-86.656 24.768-112.021 36.544-84.331 38.336-136.619 103.808-187.349 178.667-22.4 33.003-41.664 73.707-41.664 114.368v4.736c0 38.933 15.147 66.624 43.435 93.184 8.853 8.256 18.219 12.971 30.592 12.971 7.040 0 14.101-1.813 21.739-1.813 15.957 0 18.837-4.693 24.725-20.032 4.117-10.005 34.197-90.219 34.197-96.107 0-22.4-40.661-47.744-40.661-61.333 0-2.965 1.152-5.888 2.923-8.853 12.971-27.691 37.739-59.52 60.139-80.768 27.157-25.963 56.043-43.072 89.067-59.584 4.117-2.368 8.256-4.117 12.971-4.117 17.664 0 47.147 57.216 62.507 57.216 10.005 0 106.133-50.112 110.251-57.216 1.195-2.923 1.195-6.485 1.195-8.853 0-14.72-4.715-31.211-10.005-44.757z" />
<glyph unicode="&#xe601;" glyph-name="playmarket" d="M208.32 914.112c26.795-33.408 53.44-66.923 80.427-100.16 85.845-105.792 171.819-211.477 257.728-317.184 10.496-12.928 20.651-26.133 31.68-38.613 5.205-5.888 4.373-9.6-0.256-15.253-49.557-60.459-98.944-121.067-148.245-181.739-75.371-92.757-150.656-185.6-225.984-278.421-3.883 0-7.765 0-11.648 0-0.448 0.597-0.811 1.621-1.323 1.707-43.221 7.040-66.901 34.475-77.931 74.901-2.731 10.048-4.608 20.331-6.891 30.507 0 0.768 0 1.557 0 2.325-0.149 4.843 0 5.291 0 7.467 0 230.144 1.472 459.115 1.365 689.259 0 3.691 1.515 7.723-1.365 11.136 0 0.768 0 1.557 0 2.325 4.565 2.603 1.92 6.891 2.261 10.389 3.008 31.232 13.568 58.688 37.803 80.107 14.037 12.395 31.189 16.64 48.384 21.248 4.672 0 9.323 0 13.995 0zM940.651 428.864c-7.936-31.595-27.691-54.315-54.272-70.805-34.667-21.504-70.507-41.088-105.685-61.739-4.651-2.731-7.125-2.176-10.475 1.941-39.445 48.768-79.019 97.451-118.763 145.984-3.968 4.864-3.947 8.107 0.021 12.928 38.357 46.677 76.565 93.461 114.56 140.459 4.672 5.781 7.808 7.125 14.827 2.944 32.704-19.499 66.112-37.781 98.773-57.344 29.269-17.557 55.552-51.648 61.099-75.221 3.627-15.467 2.155-31.104-0.085-39.147zM105.856 800c2.88-3.392 1.365-7.445 1.365-11.136 0.107-230.144-1.365-459.584-1.365-689.728 0-2.176 0-6.976 0-6.976 0 235.947 0 471.893 0 707.84zM297.365 21.312c50.261 61.973 100.459 123.968 150.805 185.877 53.248 65.493 106.752 130.773 159.787 196.437 5.973 7.403 8.469 7.659 14.571 0.043 34.325-42.923 69.141-85.461 104.107-127.872 5.269-6.4 3.435-8.704-2.837-12.309-140.075-80.64-280.043-161.472-420.032-242.24-1.301-0.747-2.752-1.216-4.139-1.792-0.768 0.619-1.515 1.237-2.261 1.856zM302.165 876.693c28.395-16.448 53.888-31.275 79.403-46.016 112.043-64.683 224-129.493 336.277-193.728 10.56-6.037 10.965-9.131 3.221-18.347-34.112-40.661-67.413-82.005-100.715-123.349-4.075-5.056-5.973-5.269-10.069-0.235-101.739 125.44-203.605 250.795-305.429 376.171-0.448 0.597-0.661 1.387-2.688 5.504zM299.627 19.456c-0.981-1.472-2.667-3.221-4.011-2.027-2.069 1.856 1.045 2.581 1.749 3.883 0.747-0.619 1.493-1.237 2.261-1.856z" />
<glyph unicode="&#xe602;" glyph-name="appstore" d="M756.587 417.771c-1.216 122.133 99.605 180.715 104.107 183.637-56.683 82.923-144.917 94.251-176.363 95.573-75.115 7.595-146.539-44.203-184.661-44.203-38.037 0-96.832 43.093-159.147 41.941-81.856-1.216-157.355-47.552-199.488-120.917-85.035-147.584-21.781-366.208 61.141-485.931 40.491-58.581 88.832-124.373 152.213-122.027 61.077 2.432 84.181 39.488 157.995 39.488 73.856 0 94.571-39.488 159.232-38.293 65.685 1.237 107.349 59.712 147.605 118.464 46.507 67.989 65.664 133.803 66.773 137.173-1.429 0.661-128.149 49.237-129.408 195.093zM635.157 776.192c33.664 40.853 56.384 97.515 50.176 154.027-48.512-2.005-107.285-32.32-142.037-73.024-31.232-36.139-58.539-93.824-51.221-149.227 54.123-4.224 109.376 27.499 143.083 68.224z" />
<glyph unicode="&#xe603;" glyph-name="culture" d="M1002.965 736h-263.232l-215.68 199.147c-7.787 6.592-19.243-2.176-26.987-8.896l-208.235-190.251h-239.915c-24.235 0-38.251-8-38.251-27.989v-751.552c0-11.456 26.773-9.771 38.251-9.771h954.048c11.456 0 10.368 45.227 10.368 56.683v709.973c0 11.435 1.088 22.656-10.368 22.656zM510.912 874.603l164.437-138.603h-323.413l158.976 138.603zM970.667-10.667h-917.333v704h917.333v-704zM96 617.344v-568.448c0-11.456 12.949-16.896 24.405-16.896h75.819c2.539 0 5.035 0 7.552 0h395.669c1.024 0 1.963-0.64 2.987-0.64 1.259 0 2.496 0.64 3.755 0.64h310.251c11.456 0 11.563 14.315 11.563 25.771v567.552c0 11.456 0.491 25.344-13.995 25.344h-782.144c-22.528 0-35.861-12.672-35.861-33.323zM311.147 181.333h180.331c25.493-42.667 50.24-64 68.16-106.667h-316.864c17.984 42.667 42.816 64 68.373 106.667zM334.336 224c25.941 64 50.581 104.64 67.136 163.221 16.491-58.56 41.067-99.221 66.923-163.221h-134.059zM757.333 74.667h-42.667v106.667h42.667v-106.667zM800 74.667v234.667h85.333v-234.667h-85.333zM138.667 608h746.667v-256h-89.771c-11.456 0-38.229 3.456-38.229-8v-120h-44.736c-11.456 0-40.597 3.456-40.597-8v-141.333h-60.139c-14.229 21.333-50.091 81.92-86.912 145.621-1.003 3.989-9.728 16.128-12.693 18.816-48.619 86.229-90.005 202.667-90.005 311.36 0 0.747-0.043 3.52-0.128 4.245-1.088 10.411-9.899 19.541-20.629 19.541-11.456 0-20.736-8.789-20.736-20.224 0-108.757-39.445-221.461-88.299-307.776-2.432-2.368-13.141-21.675-14.165-25.003-37.163-64.235-73.429-125.227-87.765-146.56h-51.861v533.312z" />
<glyph unicode="&#xe604;" glyph-name="sport" d="M974.016 239.275l-557.589 199.573c-6.379 2.283-12.928 1.323-18.496-2.603s-8.576-10.304-8.576-17.131c0-16.896-39.808-41.899-125.547-41.899-71.36 0-125.632 15.893-125.632 29.867 0 11.563-9.301 8.917-20.885 8.917h-41.92c-34.667 0-64.704-4.117-64.704-38.784v-293.312c0-11.563 11.221-30.571 22.805-30.571h963.755c11.584 0 16.107 19.008 16.107 30.571v96.171c0 26.517-14.357 50.304-39.317 59.2zM974.165 181.333h-437.867c0 21.333 18.795 42.667 41.899 42.667h125.696c26.539 0 47.125 21.995 56.768 44.544l201.685-74.048c5.44-1.941 9.515 8.171 11.819-13.163zM75.371 373.333h26.005c19.691-42.667 93.461-50.432 162.56-50.432 82.261 0 141.035 27.691 160.555 62.805l55.851-16.853-21.76-20.309c-8.171-8.213-8.128-20.693 0.085-28.864 4.096-4.053 9.429-5.717 14.763-5.717 5.376 0 10.752 2.24 14.848 6.357l35.669 35.947 33.643-11.968-15.168-15.168c-8.192-8.192-8.192-21.44 0-29.611 4.096-4.075 9.451-6.123 14.805-6.123s10.731 2.048 14.805 6.144l29.184 29.205 119.936-56.405c-4.053-7.595-10.859-27.029-17.28-27.029h-125.696c-46.229 0-83.797-21.333-83.797-64h-315.925c-9.237 42.667-39.787 122.133-125.12 131.349v57.643c0 6.037 10.475 3.029 22.037 3.029zM53.333 270.357c42.667-8.363 74.432-46.357 82.773-89.024h-82.773v89.024zM53.333 96v42.667h917.333v-42.667h-917.333zM997.227 800h-963.755c-11.584 0-22.805 7.808-22.805-3.755v-96.213c0-26.496 17.685-50.261 42.624-59.157l559.317-199.595c2.283-0.811 4.907-1.216 7.275-1.216 4.245 0 8.597 1.301 12.181 3.819 5.568 3.925 8.939 10.304 8.939 17.131 0 16.896 39.979 41.899 125.739 41.899 71.36 0 125.717-39.957 125.717-53.931 0-11.563 9.387-32.981 20.971-32.981h41.899c34.667 0 58.005 52.267 58.005 86.933v293.312c0 11.563-4.523 3.755-16.107 3.755zM970.667 609.792c-21.333 8.363-67.733 19.541-76.075 62.208h76.075v-62.208zM970.667 757.333v-42.667h-917.333v42.667h917.333zM56.512 672h437.888c0-21.333-18.795-42.667-41.899-42.667h-125.696c-26.56 0-47.147-8.597-56.789-31.147l-201.707 67.349c-5.44 1.941-9.493 6.464-11.797 6.464zM955.328 458.667h-26.005c-19.691 42.667-93.461 74.517-162.56 74.517-82.261 0-141.035-15.659-160.555-50.773l-55.893 22.869 21.76 23.296c8.192 8.213 8.149 22.187-0.043 30.357-8.213 8.149-21.461 8.469-29.632 0.32l-35.712-35.669-33.621 12.096 15.189 15.211c8.192 8.171 8.192 21.461 0 29.653-8.192 8.213-21.44 8.192-29.632 0.021l-29.248-29.205-119.893 32.32c4.053 7.595 10.859 2.965 17.28 2.965h125.696c46.229 0 83.797 42.667 83.797 85.333h315.947c9.237-64 54.421-95.317 118.421-104.555v-64.533c0.043-11.52-3.755-44.224-15.296-44.224z" />
<glyph unicode="&#xe605;" glyph-name="technology" d="M255.957 565.333h-169.237c-9.664 0-33.387 23.509-33.387 34.965v7.701h493.12c11.477 0 18.88 22.336 18.88 33.792v249.003c0 34.325-24.619 58.539-57.195 58.539h-421.419c-32.533 0-76.053-24.213-76.053-58.539v-290.496c0-34.325 43.52-77.632 76.053-77.632h169.237c11.456 0 20.757 9.877 20.757 21.333s-9.301 21.333-20.757 21.333zM86.72 906.667h421.419c9.685 0 14.528-4.437 14.528-15.872v-240.128h-469.333v240.128c0 11.435 23.723 15.872 33.387 15.872zM255.957 480h-124.501c-11.456 0-20.757-9.877-20.757-21.333 0-11.477 9.301-21.333 20.757-21.333h124.501c11.456 0 20.757 9.856 20.757 21.333 0 11.456-9.301 21.333-20.757 21.333zM936.555 565.333h-531.2c-48.064 0-96.021-28.608-96.021-81.237v-348.608c0-52.629 47.979-103.488 96.021-103.488h223.979v-42.667h-124.373c-11.456 0-20.757-9.856-20.757-21.333s9.301-21.333 20.757-21.333h331.989c11.477 0 20.757 9.856 20.757 21.333s-9.28 21.333-20.757 21.333h-164.949v42.667h264.555c48.064 0 76.779 50.859 76.779 103.488v348.608c0 52.629-28.715 81.237-76.779 81.237zM352 484.096c0 29.739 28.181 38.571 53.355 38.571h531.2c25.173 0 34.112-8.811 34.112-38.571v-281.429h-618.667v281.429zM936.555 74.667h-531.2c-25.173 0-53.355 31.061-53.355 60.821v24.512h618.667v-24.512c0-29.76-8.939-60.821-34.112-60.821zM691.712 123.051c0-11.464-9.293-20.757-20.757-20.757s-20.757 9.293-20.757 20.757c0 11.464 9.293 20.757 20.757 20.757s20.757-9.293 20.757-20.757z" />
<glyph unicode="&#xe606;" glyph-name="worldnews" d="M1008.192 429.611c0.213 6.101 0.469 12.224 0.469 18.389 0 218.581-142.016 404.523-338.56 470.72-4.267 3.648-9.621 5.376-15.125 4.885-45.291 13.632-93.269 21.056-142.976 21.056-273.856 0-496.661-222.805-496.661-496.661 0-6.165 0.235-12.267 0.469-18.389-0.085-0.789-0.469-1.493-0.469-2.304 0-1.045 0.448-1.963 0.597-2.965 12.395-262.912 230.144-473.003 496.064-473.003 49.6 0 97.515 7.403 142.741 21.013 0.704-0.064 1.408-0.32 2.112-0.32 5.12 0 10.112 1.941 13.995 5.504 189.035 64 327.403 238.805 337.216 446.784 0.149 1.003 0.597 1.92 0.597 2.965 0 0.832-0.363 1.536-0.469 2.325zM522.667-6.763v233.365c85.333-5.227 144.683-25.024 194.859-46.208-30.080-86.592-67.264-146.987-80.107-167.829-35.755-10.923-72.085-17.579-114.752-19.328zM398.4 5.76c-42.645 63.211-75.584 126.507-96.363 188.587 63.36 23.595 135.296 33.173 177.963 33.557v-234.667c-21.333 1.365-53.44 5.653-81.6 12.523zM58.688 416h172.501c1.707-42.667 10.496-128.384 28.693-193.28-33.408-14.848-67.243-31.189-101.269-54.315-55.467 68.245-91.541 162.261-99.925 247.595zM480 902.763v-248.171c-64 2.155-122.539 16.704-172.245 34.539 36.096 114.645 80.896 190.507 87.787 201.109 28.181 6.869 63.125 11.157 84.459 12.523zM639.957 883.413c39.595-59.947 65.707-119.915 85.675-178.816-70.059-32.469-117.632-46.976-202.965-49.877v248.043c42.667-1.749 81.515-8.405 117.291-19.349zM772.203 458.667h-249.536v156.075c85.333 2.496 143.659 22.229 217.728 55.467 20.885-75.371 33.344-126.208 31.808-211.541zM522.667 416h247.488c-5.141-64-23.68-137.643-40.299-192.896-54.016 22.059-121.835 37.867-207.168 43.328v149.568zM480 614.955v-156.288h-207.509c1.664 85.333 7.957 137.536 24.128 197.632 53.163-18.581 119.381-38.891 183.381-41.344zM272.597 416h207.403v-148.267c-42.667-0.085-119.744-5.035-187.072-29.44-16.256 59.477-18.624 135.040-20.331 177.707zM760.149 163.008c38.485-19.307 62.955-36.437 69.205-41.003-36.075-35.115-77.888-64.341-123.947-86.037 16.171 31.104 36.203 74.325 54.741 127.040zM855.531 154.133c-1.003 0.747-31.403 27.627-82.709 52.181 18.347 59.797 33.387 145.685 38.805 209.685h153.685c-8.768-85.333-47.936-189.525-107.84-259.349-0.704 0.704-1.131-3.115-1.941-2.517zM813.611 458.667c1.643 85.333-6.741 148.245-30.336 230.123 23.787 12.672 47.744 24.619 71.765 41.579 3.776 2.667 6.059 10.496 7.403 14.592 65.429-78.848 104.832-158.293 104.832-286.293h-153.664zM838.549 764.779c-2.581-0.576-5.077-1.643-7.381-3.264-20.331-14.357-40.576-26.944-60.672-38.037-15.509 44.565-35.776 89.685-61.675 134.997 48.683-23.424 92.501-55.339 129.728-93.696zM345.365 871.552c-19.627-36.416-47.147-94.165-70.4-167.211-49.493 21.483-83.648 43.691-96.768 52.821 46.080 49.707 103.083 89.088 167.168 114.389zM151.424 730.816c11.456-7.979 51.691-31.744 112.171-56.981-17.621-64.235-30.741-129.835-32.512-215.168h-174.357c0 128 35.392 195.264 94.699 272.149zM186.432 130.197c28.843 19.285 57.472 35.307 85.696 48.277 17.088-50.411 39.915-101.568 70.379-152.896-59.157 23.829-112.213 59.691-156.075 104.619z" />
<glyph unicode="&#xe607;" glyph-name="economy" d="M1013.333 673.259c0 58.219-47.189 105.408-105.408 105.408h-791.851c-58.219 0-105.408-47.189-105.408-105.408v-599.829c0-58.219 47.189-105.408 105.408-105.408h791.829c58.219 0 105.408 47.189 105.408 105.408v599.829zM117.291 736h801.173c34.88 0 52.203-17.323 52.203-52.203v-118.464h-917.333v118.464c0 34.88 29.077 52.203 63.957 52.203zM918.464 10.667h-801.173c-34.88 0-63.957 47.915-63.957 82.795v429.205h917.333v-429.205c0-34.88-17.323-82.795-52.203-82.795zM222.72 662.699c0-23.293-18.883-42.176-42.176-42.176s-42.176 18.883-42.176 42.176c0 23.293 18.883 42.176 42.176 42.176s42.176-18.883 42.176-42.176zM349.227 662.699c0-23.293-18.883-42.176-42.176-42.176s-42.176 18.883-42.176 42.176c0 23.293 18.883 42.176 42.176 42.176s42.176-18.883 42.176-42.176zM475.712 662.699c0-23.293-18.883-42.176-42.176-42.176s-42.176 18.883-42.176 42.176c0 23.293 18.883 42.176 42.176 42.176s42.176-18.883 42.176-42.176zM926.357 447.253l-197.845-158.272-176.619 137.387c-4.885 3.797-11.136 5.227-17.173 4.011-6.016-1.237-11.221-5.035-14.208-10.411l-95.616-172.117-150.613 75.307c-7.659 3.84-16.853 2.667-23.317-2.987l-168.64-147.584c-8.768-7.68-9.643-20.992-1.984-29.76 4.16-4.779 10.005-7.211 15.872-7.211 4.928 0 9.877 1.707 13.867 5.205l158.016 138.283 156.011-78.016c10.091-5.013 22.4-1.28 27.861 8.619l93.483 168.235 170.304-132.48c7.68-5.995 18.496-5.909 26.133 0.171l210.837 168.683c9.088 7.275 10.56 20.544 3.285 29.632-7.296 9.088-20.523 10.603-29.653 3.307z" />
<glyph unicode="&#xe608;" d="M657.536 895.979c103.104 0 186.987-83.883 186.987-186.987s-83.883-186.987-186.987-186.987-186.987 83.883-186.987 186.987 83.861 186.987 186.987 186.987zM657.536 937.515c-126.016 0-228.544-102.528-228.544-228.544s102.528-228.544 228.544-228.544 228.544 102.528 228.544 228.544-102.549 228.544-228.544 228.544v0z" />
<glyph unicode="&#xe609;" d="M605.739 50.219c-69.611 0-139.435 35.499-173.803 88.341-3.84 5.909-10.389 9.451-17.408 9.451-7.040 0-13.611-3.563-17.408-9.451-34.368-52.843-104.213-88.341-173.781-88.341-43.179 0-81.792 13.269-113.003 37.867 3.904-0.363 7.808-0.533 11.755-0.533 70.080 0 127.125 57.024 127.125 127.147 0 58.347 42.667 84.416 84.971 84.416 25.707 0 49.387-9.707 65.045-26.667 3.947-4.267 9.451-6.677 15.275-6.677 5.803 0 11.328 2.411 15.253 6.677 15.659 16.96 39.403 26.667 65.088 26.667 42.304 0 84.992-26.069 84.992-84.416 0-70.123 57.003-127.147 127.083-127.147 3.947 0 7.893 0.192 11.776 0.533-31.168-24.597-69.803-37.867-112.96-37.867zM804.971 173.035c-9.429 5.269-21.248 2.453-27.307-6.421-16-23.488-42.453-37.504-70.72-37.504-47.189 0-85.547 38.4-85.547 85.589 0 82.709-63.68 125.973-126.549 125.973-29.867 0-58.176-9.365-80.341-26.155-22.165 16.789-50.475 26.155-80.32 26.155-62.891 0-126.528-43.264-126.528-125.973 0-47.211-38.4-85.589-85.568-85.589-28.309 0-54.72 13.995-70.677 37.483-6.037 8.853-17.899 11.648-27.285 6.464-9.408-5.227-13.248-16.789-8.875-26.624 38.997-87.552 114.837-137.771 208.085-137.771 73.941 0 145.984 32.32 191.189 84.224 45.205-51.904 117.248-84.224 191.211-84.224 93.227 0 169.109 50.219 208.107 137.771 4.352 9.813 0.512 21.355-8.875 26.603z" />
<glyph unicode="&#xe60a;" d="M758.848 725.675c0-57.28-46.592-103.872-103.872-103.872-11.499 0-20.779-9.28-20.779-20.779s9.28-20.779 20.779-20.779c80.171 0 145.429 65.259 145.429 145.429 0 11.499-9.28 20.779-20.779 20.779s-20.779-9.28-20.779-20.779z" />
<glyph unicode="&#xe60b;" d="M958.784 673.109c-11.499 0-20.779-9.28-20.779-20.779v-664.853c0-11.499 9.28-20.779 20.779-20.779s20.779 9.28 20.779 20.779v664.853c0 11.477-9.28 20.779-20.779 20.779z" />
<glyph unicode="&#xe60c;" d="M979.563 708.971c0-11.476-9.303-20.779-20.779-20.779s-20.779 9.303-20.779 20.779c0 11.476 9.303 20.779 20.779 20.779s20.779-9.303 20.779-20.779z" />
<glyph unicode="&#xf099;" glyph-name="twitter" horiz-adv-x="951" d="M925.714 717.714q-38.286-56-92.571-95.429 0.571-8 0.571-24 0-74.286-21.714-148.286t-66-142-105.429-120.286-147.429-83.429-184.571-31.143q-154.857 0-283.429 82.857 20-2.286 44.571-2.286 128.571 0 229.143 78.857-60 1.143-107.429 36.857t-65.143 91.143q18.857-2.857 34.857-2.857 24.571 0 48.571 6.286-64 13.143-106 63.714t-42 117.429v2.286q38.857-21.714 83.429-23.429-37.714 25.143-60 65.714t-22.286 88q0 50.286 25.143 93.143 69.143-85.143 168.286-136.286t212.286-56.857q-4.571 21.714-4.571 42.286 0 76.571 54 130.571t130.571 54q80 0 134.857-58.286 62.286 12 117.143 44.571-21.143-65.714-81.143-101.714 53.143 5.714 106.286 28.571z" />
<glyph unicode="&#xf09a;" glyph-name="facebook" horiz-adv-x="585" d="M548 944v-150.857h-89.714q-49.143 0-66.286-20.571t-17.143-61.714v-108h167.429l-22.286-169.143h-145.143v-433.714h-174.857v433.714h-145.714v169.143h145.714v124.571q0 106.286 59.429 164.857t158.286 58.571q84 0 130.286-6.857z" />
<glyph unicode="&#xf0e0;" glyph-name="envelope" d="M1024 545.143v-453.714q0-37.714-26.857-64.571t-64.571-26.857h-841.143q-37.714 0-64.571 26.857t-26.857 64.571v453.714q25.143-28 57.714-49.714 206.857-140.571 284-197.143 32.571-24 52.857-37.429t54-27.429 62.857-14h1.143q29.143 0 62.857 14t54 27.429 52.857 37.429q97.143 70.286 284.571 197.143 32.571 22.286 57.143 49.714zM1024 713.143q0-45.143-28-86.286t-69.714-70.286q-214.857-149.143-267.429-185.714-5.714-4-24.286-17.429t-30.857-21.714-29.714-18.571-32.857-15.429-28.571-5.143h-1.143q-13.143 0-28.571 5.143t-32.857 15.429-29.714 18.571-30.857 21.714-24.286 17.429q-52 36.571-149.714 104.286t-117.143 81.429q-35.429 24-66.857 66t-31.429 78q0 44.571 23.714 74.286t67.714 29.714h841.143q37.143 0 64.286-26.857t27.143-64.571z" />
<glyph unicode="&#xf189;" glyph-name="vk" horiz-adv-x="1097" d="M1095.429 653.714q13.143-36.571-85.714-168-13.714-18.286-37.143-48.571-44.571-57.143-51.429-74.857-9.714-23.429 8-46.286 9.714-12 46.286-46.857h0.571l2.286-2.286q80.571-74.857 109.143-126.286 1.714-2.857 3.714-7.143t4-15.143-0.286-19.429-14.286-15.714-33.714-7.143l-146.286-2.286q-13.714-2.857-32 2.857t-29.714 12.571l-11.429 6.857q-17.143 12-40 36.571t-39.143 44.286-34.857 33.143-32.286 8.857q-1.714-0.571-4.571-2t-9.714-8.286-12.286-16.857-9.714-29.714-3.714-44.286q0-8.571-2-15.714t-4.286-10.571l-2.286-2.857q-10.286-10.857-30.286-12.571h-65.714q-40.571-2.286-83.429 9.429t-75.143 30.286-58.857 37.714-40.286 32.857l-14.286 13.714q-5.714 5.714-15.714 17.143t-40.857 52-60.571 86.286-70 120.571-74.571 155.429q-3.429 9.143-3.429 15.429t1.714 9.143l2.286 3.429q8.571 10.857 32.571 10.857l156.571 1.143q6.857-1.143 13.143-3.714t9.143-4.857l2.857-1.714q9.143-6.286 13.714-18.286 11.429-28.571 26.286-59.143t23.429-46.571l9.143-16.571q16.571-34.286 32-59.429t27.714-39.143 23.714-22 19.429-8 15.429 2.857q1.143 0.571 2.857 2.857t6.857 12.571 7.714 26.857 5.429 46.286 0 71.429q-1.143 22.857-5.143 41.714t-8 26.286l-3.429 6.857q-14.286 19.429-48.571 24.571-7.429 1.143 2.857 13.714 9.714 10.857 21.714 17.143 30.286 14.857 136.571 13.714 46.857-0.571 77.143-7.429 11.429-2.857 19.143-7.714t11.714-13.714 6-18.286 2-26-0.571-31.429-1.429-40.286-0.857-47.143q0-6.286-0.571-24t-0.286-27.429 2-23.143 6.571-22.286 12.857-14q4.571-1.143 9.714-2.286t14.857 6.286 21.714 19.714 29.714 38.286 38.857 61.429q34.286 59.429 61.143 128.571 2.286 5.714 5.714 10t6.286 6l2.286 1.714 2.857 1.429t7.429 1.714 11.429 0.286l164.571 1.143q22.286 2.857 36.571-1.429t17.714-9.429z" />
<glyph unicode="&#xf263;" glyph-name="odnoklassniki" horiz-adv-x="731" d="M365.714 432.571q-107.429 0-183.429 76t-76 182.857q0 107.429 76 183.429t183.429 76 183.429-76 76-183.429q0-106.857-76-182.857t-183.429-76zM365.714 819.428q-52.571 0-90-37.429t-37.429-90.571q0-52.571 37.429-90t90-37.429 90 37.429 37.429 90q0 53.143-37.429 90.571t-90 37.429zM664.571 401.143q7.429-15.429 8.571-28.286t-2.571-23.143-15.143-22-24.286-21.143-35.143-23.714q-65.714-41.714-180-53.714l41.714-41.143 152.571-152.571q17.143-17.714 17.143-42.286t-17.143-41.714l-6.857-7.429q-17.714-17.143-42.286-17.143t-42.286 17.143q-38.286 38.857-152.571 153.143l-152.571-153.143q-17.714-17.143-42.286-17.143t-41.714 17.143l-6.857 7.429q-17.714 17.143-17.714 41.714t17.714 42.286l193.714 193.714q-116 12-181.143 53.714-22.286 14.286-35.143 23.714t-24.286 21.143-15.143 22-2.571 23.143 8.571 28.286q5.714 11.429 16 20t24 12.571 32-1.143 37.143-20q2.857-2.286 8.571-6.286t24.571-14 39.429-17.429 52.571-13.714 64.571-6.286q52 0 99.429 14.571t68.571 28.857l21.714 14.286q18.857 14.857 37.143 20t32 1.143 24-12.571 16-20z" />
</font></defs></svg>